country,freedom_score,democracy_score,social_progress_score
Albania,7.54,3,70.85
Algeria,4.99,6,65.64
Angola,5.17,6,36.77
Argentina,4.84,2,74.48
Armenia,7.57,5,69.66
Australia,7.98,1,87.66
Austria,7.58,1,86.5
Azerbaijan,6.49,7,
Bahamas,7.34,1,BHS
Bahrain,7.56,7,
Bangladesh,6.3,4,50.58
Barbados,6.43,1,75.45
Belarus,6.23,7,71.02
Belgium,7.32,1,86.73
Belize,6.86,1,
Benin,5.98,2,48.01
Bhutan,7.02,3,64.29
Bolivia,6.23,3,63.49
Bosnia and Herzegovina,6.6,4,
Botswana,7.43,3,61.95
Brazil,5.75,2,73.91
Brunei Darussalam,6.93,,
Bulgaria,7.41,2,74.24
Burkina Faso,6.05,4,43.07
Burundi,5.92,7,37.63
Cambodia,7.17,6,47.09
Cameroon,5.82,6,44.5
Canada,7.98,1,87.65
Cape Verde,6.68,1,
Central Afr. Rep.,5.11,,
Chad,5.44,7,26.92
Chile,7.8,1,80.47
China,6.46,7,62.67
Colombia,6.5,3,70.58
Congo,5.551182244729643,,COG
Costa Rica,7.55,1,80.97
Cote d'Ivoire,6,4,
Croatia,6.96,1,78.32
Cyprus,7.71,1,81.85
Czech Rep.,7.56,,
Denmark,7.77,1,89.25
Dominican Rep.,7.18,,
Ecuador,6.06,3,68.86
Egypt,5.72,6,58.28
El Salvador,7.15,2,64.94
Estonia,7.86,1,82.8
Ethiopia,5.73,7,38.79
Fiji,6.79,3,64.41
Finland,7.65,1,89.38
France,7.25,1,87.74
Gabon,5.84,6,
Gambia,7.011637096998868,,GMB
Georgia,8.02,3,69.05
Germany,7.69,-,88.69
Ghana,6.6,1,58.19
Greece,6.46,2,82.7
Guatemala,7.64,4,58.56
Guinea,5.93,5,37.56
Guinea-Bissau,5.25,5,
Guyana,6.31,2,60.26
Haiti,6.51,5,
Honduras,7.06,4,57
Hong Kong,8.97,,
Hungary,7.22,3,80.09
Iceland,7.22,1,89.62
India,6.63,2,53.87
Indonesia,7.16,2,61.59
Iran,6.03,6,63.06
Iraq,5.4,5,
Ireland,8.07,1,88.09
Israel,7.49,1,82.04
Italy,7.27,1,84.85
Jamaica,7.18,2,
Japan,7.47,1,88.19
Jordan,7.46,5,69.19
Kazakhstan,7.11,7,65.89
Kenya,7.2,4,54
Korea,7.243194392051303,,PRK
Kuwait,6.75,5,
Kyrgyz Republic,6.93,,
Laos,6.91,7,45.94
Latvia,7.64,1,78.27
Lebanon,6.99,5,66.02
Lesotho,6.38,3,47.84
Liberia,6.56,3,44.97
Libya,4.74,7,
Lithuania,7.86,1,80.94
Luxembourg,7.6,1,88.86
Macedonia,7.13,4,66.8
Madagascar,6.19,3,42.2
Malawi,5.86,3,47.9
Malaysia,6.92,4,71.21
Mali,5.8,5,44.69
Malta,7.73,1,
Mauritania,5.96,6,41.84
Mauritius,8.01,1,73.79
Mexico,6.9,3,68.65
Moldova,6.64,3,67.1
Mongolia,7.4,1,64.18
Montenegro,7.04,3,71.42
Morocco,6.37,5,64.23
Mozambique,5.5,4,43.37
Myanmar,5.42,5,49.65
Namibia,6.4,2,
Nepal,6.53,3,52.68
Netherlands,7.71,1,89.1
New Zealand,8.49,1,87.83
Nicaragua,7.27,5,62.47
Niger,6.01,4,36.87
Nigeria,6.32,3,48.12
Norway,7.6,1,89.55
Oman,6.76,6,67.72
Pakistan,6,4,46.61
Panama,7.58,2,71.91
Pap. New Guinea,6.25,,
Paraguay,6.95,3,63.69
Peru,7.43,2,68.75
Philippines,7.34,3,62.68
Poland,7.27,1,81.69
Portugal,7.51,1,84.66
Qatar,7.49,6,70.24
Romania,7.69,2,74.05
Russia,6.83,7,68.94
Rwanda,7.48,6,52.26
Saudi Arabia,6.52,7,64.15
Senegal,6.22,2,54.76
Serbia,6.85,3,71.49
Seychelles,7.23,3,
Sierra Leone,5.75,3,42.15
Singapore,8.84,4,84.08
Slovak Rep.,7.3,,
Slovenia,7.05,1,84.6
South Africa,6.65,2,65.17
Spain,7.56,1,86.72
Sri Lanka,6.49,3,66.96
Sudan,5.36,7,37.36
Suriname,6.36,2,66.49
Swaziland,6.46,7,48.55
Sweden,7.44,1,88.63
Switzerland,8.39,1,89.04
Syria,5.02,7,
Taiwan,7.89,1,
Tajikistan,6.72,7,52.15
Tanzania,6.92,3,49.9
Thailand,6.85,6,66.72
Timor-Leste,6.55,3,53.57
Togo,5.82,4,46.49
Trinidad and Tobago,6.73,2,
Tunisia,6.29,1,71.74
Turkey,6.84,4,67.26
Uganda,7.41,6,
Ukraine,5.98,3,67.57
United Arab Emirates,7.5,6,74.58
United Kingdom,8,1,88.47
United States,8.03,1,86.4
Uruguay,7.16,1,80.12
Venezuela,2.88,6,
Vietnam,6.42,-,
Yemen,5.227397138390163,-,38.22
Zambia,6.61,4,
Zimbabwe,6.06,5,42.59
Survey Edition,,2017,
Year(s) Under Review,,2016,
,,PR,
Afghanistan,,6,31.21
Andorra,,1,
Antigua and Barbuda,,2,
Brunei,,6,
Central African Republic,,7,26.01
Comoros,,3,52.24
Congo (Brazzaville),,7,
Congo (Kinshasa),,7,
Cuba,,7,68.52
Czech Republic,,1,83.72
Czechoslovakia,,-,
Djibouti,,6,45.22
Dominica,,1,
Dominican Republic,,3,64.92
Equatorial Guinea,,7,
Eritrea,,7,31.61
Grenada,,1,
Kiribati,,1,
Kosovo,,3,
Kyrgyzstan,,5,63.24
Liechtenstein,,2,
Maldives,,5,
Marshall Islands,,1,
Micronesia,,1,
Monaco,,3,
Nauru,,2,
North Korea,,7,
Northern Cyprus,,-,
Palau,,1,
Papua New Guinea,,3,35.83
Samoa,,2,
San Marino,,1,
Sao Tome and Principe,,2,59.78
Slovakia,,1,79.83
Solomon Islands,,3,47.2
Somalia,,7,
South Korea,,2,
South Sudan,,7,
St. Kitts and Nevis,,1,
St. Lucia,,1,
St. Vincent and the Grenadines,,1,
The Gambia,,6,
Tonga,,2,
Turkmenistan,,7,
Tuvalu,,1,
USSR,,-,
Uzbekistan,,7,56.36
Vanuatu,,2,
Yugoslavia,,-,
Yugoslavia (Serbia & Montenegro),,-,
Côte d'Ivoire,,,45.99
Cabo Verde,,,66.42
Aruba,,,
Anguilla,,,
American Samoa,,,
Bermuda,,,
Channel Islands,,,
Cook Islands,,,
Curaçao,,,
Cayman Islands,,,
Western Sahara,,,
Falkland Islands,,,
Faroe Islands,,,
Guernsey,,,
Gibraltar,,,
Guadeloupe,,,
Greenland,,,
French Guiana,,,
Guam,,,
Jersey,,,
Macao,,,
St. Martin,,,
Northern Mariana Islands,,,
Montserrat,,,
Martinique,,,
Mayotte,,,
New Caledonia,,,
North Cyprus,,,
Niue,,,
Puerto Rico,,,
French Polynesia,,,
Réunion,,,
St. Helena,,,
Somaliland,,,
St. Pierre and Miquelon,,,
Turks and Caicos Islands,,,
Tokelau,,,
Vatican City,,,
British Virgin Islands,,,
Virgin Islands (U.S.),,,
West Bank and Gaza,,,
Wallis and Futuna Islands,,,
